Daily Digest $TODAY$
Hi $USERNAME$, we found 25+ new job results near you.
$JOBUNGOUK_LINK_1$
=============
Popular Keywords
------
Customer Service
$JOBUNGOUK_LINK_12$
------
Retail
$JOBUNGOUK_LINK_50$
------
Education
$JOBUNGOUK_LINK_76$
------
Healthcare
$JOBUNGOUK_LINK_20$
------
Transportation
$JOBUNGOUK_LINK_29$
------
Banking
$JOBUNGOUK_LINK_77$
------
=============
Featured Jobs
------
Customer Assistant
8,168 Openings
6.96 per hour
$JOBUNGOUK_LINK_71$
------
Sales Advisor
2,319 Openings
33,497 per year
$JOBUNGOUK_LINK_68$
------
Administrative Assistant
2,870 Openings
10.91 per hour
$JOBUNGOUK_LINK_42$
------
Human Resources
7,214 Openings
47,590 per year
$JOBUNGOUK_LINK_39$
------
Account Manager
9,751 Openings
33,563 per year
$JOBUNGOUK_LINK_57$
------
Delivery Driver
7,133 Openings
8.01 per hour
$JOBUNGOUK_LINK_14$
------
Project Manager
2,745 Openings
41,602 per year
$JOBUNGOUK_LINK_53$
------
Retail Sales Associate
4,739 Openings
6.73 per hour
$JOBUNGOUK_LINK_54$
------
=============
View More Openings $JOBUNGOUK_LINK_1$
=============
Branch Manager
$JOBUNGOUK_LINK_72$
------
Retail Store Manager
$JOBUNGOUK_LINK_67$
------
Warehouse Associate
$JOBUNGOUK_LINK_13$
------
Marketing Assistant
$JOBUNGOUK_LINK_17$
------
Office Assistant
$JOBUNGOUK_LINK_26$
------
IT Support
$JOBUNGOUK_LINK_64$
------
Senior Nurse
$JOBUNGOUK_LINK_75$
------
Patient Administrator
$JOBUNGOUK_LINK_74$
------
Care Manager
$JOBUNGOUK_LINK_78$
------
=============

Copyright (c) 2013 Jobungo. All rights reserved.
Unsubscribe $JOBUNGOUK_LINK_2$ | Privacy $JOBUNGOUK_LINK_24$
2312 Park Ave #408 | Tustin, CA | 92782
