
Daily Digest for $USERNAME$ $TODAY$
25+ new jobs near $CITY$
$JOBUNGOUK_LINK_3$
=============
Popular Industries
------
Human Resources
$JOBUNGOUK_LINK_39$
------
Logistics
$JOBUNGOUK_LINK_40$
------
Healthcare
$JOBUNGOUK_LINK_20$
------
Insurance
$JOBUNGOUK_LINK_21$
------
Food Service
$JOBUNGOUK_LINK_41$
------
Administrative
$JOBUNGOUK_LINK_42$

=============
Popular Jobs
------
Customer Service Representative
28,892 new openings
19,021 per year
$JOBUNGOUK_LINK_12$
------
Assistant Accountant
16,875 new openings
24,888 per year
 $JOBUNGOUK_LINK_43$
------
Learning Support Assistant
2,905 new openings
22,792 per year
$JOBUNGOUK_LINK_44$
------
Nursing Assistant
5,992 new openings
16,614 per year
$JOBUNGOUK_LINK_45$
------
Data Entry
9,496 new openings
17,261 per year
$JOBUNGOUK_LINK_27$
------
Business Analyst
5,261 new openings
35,759 per year
$JOBUNGOUK_LINK_46$
------
Sales Representative
13,522 new openings
23,703 per year
$JOBUNGOUK_LINK_33$
------
Maintenance Technician
7,026new openings
26,529 per year
$JOBUNGOUK_LINK_47$
------
Warehouse Worker
1,059 new openings
15,636 per year
$JOBUNGOUK_LINK_13$
------
Project Coordinator
3,891 new openings
28,445 per year
$JOBUNGOUK_LINK_48$

=============
View More Openings $JOBUNGOUK_LINK_3$
=============
Copyright (c) 2013 Jobungo. All rights reserved.
Unsubscribe $JOBUNGOUK_LINK_2$
Privacy $JOBUNGOUK_LINK_24$
2312 Park Ave #408 | Tustin, CA | 92782 $JOBUNGOUK_LINK_1$

